a04
…
#question 3
bird_obs_subset_filtered <- bird_obs_subset %>% 
  filter(park_name %in% c("Lindo", "Orme", "Palomino", "Sonrisa"))

# question 4
birds_by_park_month <- bird_obs_subset_filtered %>% 
  group_by(park_name, survey_month) %>% 
  summarize(total_birds = sum(bird_count, na.rm = TRUE), .groups = "drop")

birds_by_park_month

# A tibble: 27 × 3
   park_name survey_month total_birds
   <chr>     <fct>              <dbl>
 1 Lindo     1                    394
 2 Lindo     3                   2316
 3 Lindo     6                   2187
 4 Lindo     9                   4688
 5 Lindo     10                   529
 6 Lindo     12                  1948
 7 Lindo     <NA>                   0
 8 Orme      1                    439
 9 Orme      3                   1928
10 Orme      6                   2355
# ℹ 17 more rows
…
